{
  "project_info": {
    "project_number": "326192343372",
    "firebase_url": "https://sih-p-9c40e-default-rtdb.firebaseio.com",
    "project_id": "sih-p-9c40e",
    "storage_bucket": "sih-p-9c40e.appspot.com"
  },
  "client": [
    {
      "client_info": {
        "mobilesdk_app_id": "1:326192343372:android:4d487afa52a84f8c0447e9",
        "android_client_info": {
          "package_name": "com.defaultcompany.sih"
        }
      },
      "oauth_client": [
        {
          "client_id": "326192343372-nrsheiur9re4afqcujbpqj9dhqn7c3ss.apps.googleusercontent.com",
          "client_type": 3
        }
      ],
      "api_key": [
        {
          "current_key": "AIzaSyD8ZkjWdzlQbbps4UEzBKFD4fFDyIHOwMU"
        }
      ],
      "services": {
        "appinvite_service": {
          "other_platform_oauth_client": [
            {
              "client_id": "326192343372-nrsheiur9re4afqcujbpqj9dhqn7c3ss.apps.googleusercontent.com",
              "client_type": 3
            }
          ]
        }
      }
    }
  ],
  "configuration_version": "1"
}